{
  "kind": "collectionType",
  "collectionName": "categories",
  "info": {
    "name": "Category"
  },
  "options": {
    "increments": true,
    "timestamps": true
  },
  "attributes": {
    "title": {
      "type": "string",
      "required": true
    },
    "lessons": {
      "collection": "lesson",
      "via": "category"
    }
  }
}
